What are the issues, pulls, commits created since a date? — activitySince • BiocPkgTools
…
'commit' - hash

'parents' - hash of parent for merge commits

'author'

'message'

For information on other columns, refer to the GitHub API under repository
issues or pulls (e.g., /repos/:repo/issues).

    Examples

activitySince("Bioconductor/S4Vectors", "issues", "closed", "2021-05-01")
#> # A tibble: 28 × 3
#>    created_at           number title                                            
#>    <chr>                 <int> <chr>                                            
#>  1 2022-09-09T15:27:30Z    109 "show,DataFrame throws error on DataFrame with n…
#>  2 2022-06-07T21:33:36Z    108 "DataFrame assignment forces names of other colu…
#>  3 2022-05-26T09:53:21Z    107 "Improve and expand the Factor-class with raw in…
#>  4 2022-05-03T04:52:33Z    106 "Could I get old version S4Vectors?"             
#>  5 2022-04-05T17:41:19Z    105 "  'class2' must be the name of a class or a cla…
#>  6 2022-04-01T04:38:23Z    104 "Output class of the median of an Rle changed"   
#>  7 2022-03-31T22:56:31Z    103 "`List` constructor fails for freshly unserializ…
#>  8 2022-03-27T21:42:51Z    102 "combineCols() error"                            
#>  9 2022-03-22T17:08:47Z    101 "Error: duplicate row.names"                     
#> 10 2022-03-04T17:23:51Z    100 "Re-assignment of a nested `Dataframe` via `[,<-…
#> # … with 18 more rows
…
