Get full bioc software package listing, with details — biocPkgList • BiocPkgTools
…
    Value

    an object of class tbl_df.

    Examples

bpkgl = biocPkgList("3.7")
bpkgl
#> # A tibble: 1,562 x 43
#>    Package Version Depends Suggests License MD5sum NeedsCompilation Title
#>    <fct>   <fct>   <list>  <list>   <fct>   <fct>  <fct>            <fct>
#>  1 a4      1.28.0  <chr [… <chr [4… GPL-3   44fdf… no               Auto…
#>  2 a4Base  1.28.0  <chr [… <chr [2… GPL-3   20974… no               Auto…
#>  3 a4Clas… 1.28.0  <chr [… <chr [1… GPL-3   61aae… no               Auto…
#>  4 a4Core  1.28.0  <chr [… <chr [1… GPL-3   0b686… no               Auto…
#>  5 a4Prep… 1.28.0  <chr [… <chr [2… GPL-3   192fa… no               Auto…
#>  6 a4Repo… 1.28.0  <chr [… <chr [1… GPL-3   2682b… no               Auto…
#>  7 ABAEnr… 1.10.0  <chr [… <chr [3… GPL (>… c0817… yes              Gene…
#>  8 ABarray 1.48.0  <chr [… <chr [2… GPL     aa30d… no               "Mic…
#>  9 ABSSeq  1.34.1  <chr [… <chr [1… GPL (>… f6367… no               "ABS…
#> 10 acde    1.10.0  <chr [… <chr [2… GPL-3   f6784… no               "Art…
#> # ... with 1,552 more rows, and 35 more variables: Description <fct>,
#> #   biocViews <fct>, Author <list>, Maintainer <list>, source.ver <fct>,
#> #   win.binary.ver <fct>, `mac.binary.el-capitan.ver` <fct>, vignettes <list>,
#> #   vignetteTitles <list>, hasREADME <fct>, hasNEWS <fct>, hasINSTALL <fct>,
#> #   hasLICENSE <fct>, Rfiles <fct>, Enhances <list>, dependsOnMe <list>,
#> #   Imports <list>, importsMe <list>, suggestsMe <list>, LinkingTo <fct>,
#> #   Archs <fct>, VignetteBuilder <fct>, git_url <fct>, git_branch <fct>,
#> #   git_last_commit <fct>, git_last_commit_date <fct>,
#> #   `Date/Publication` <fct>, URL <fct>, BugReports <fct>,
…
