Work with Bioconductor package dependencies — buildPkgDependencyDataFrame • BiocPkgTools
…
# top ten most imported packages
imports_only %>% select(dependency) %>%
  group_by(dependency) %>% tally() %>%
  arrange(desc(n))
#> # A tibble: 1,607 × 2
#>    dependency       n
#>    <chr>        <int>
#>  1 stats         1092
#>  2 methods        986
#>  3 utils          899
#>  4 graphics       578
#>  5 ggplot2        548
#>  6 grDevices      536
#>  7 S4Vectors      504
#>  8 IRanges        396
#>  9 BiocGenerics   347
#> 10 dplyr          344
#> # … with 1,597 more rows
…
