Report package imported functionality — pkgDepImports • BiocPkgTools
…
    Details

    Certain imported elements, such as built-in constants, will not
be identified as imported functionality by this function.

    Author

    Robert Castelo

    Examples

pkgDepImports('BiocPkgTools')
#> # A tibble: 52 × 2
#>    pkg         fun               
#>    <chr>       <chr>             
#>  1 BiocManager version           
#>  2 DT          datatable         
#>  3 RBGL        transitive.closure
#>  4 dplyr       bind_rows         
#>  5 dplyr       collect           
#>  6 dplyr       desc              
#>  7 dplyr       filter            
#>  8 dplyr       group_by          
#>  9 dplyr       mutate            
#> 10 dplyr       rename            
#> # … with 42 more rows
…
