Overview of BiocPkgTools • BiocPkgTools
…
Dependency burden

The dependency burden of a package, namely the amount of functionality that a given package is importing, is an important parameter to take into account during package development. A package may break because one or more of its dependencies have changed the part of the API our package is importing or this part has even broken. For this reason, it may be useful for package developers to quantify the dependency burden of a given package. To do that we should first gather all dependency information using the function buildPkgDependencyDataFrame() but setting the arguments to work with packages in Bioconductor and CRAN and dependencies categorised as Depends or Imports, which are the ones installed by default for a given package.

library(BiocPkgTools)

depdf <- buildPkgDependencyDataFrame(repo=c("BioCsoft", "CRAN"),
                                     dependencies=c("Depends", "Imports"))
depdf

## # A tibble: 128,936 × 3
##    Package       dependency  edgetype
##    <chr>         <chr>       <chr>   
##  1 a4            a4Base      Depends 
##  2 a4            a4Preproc   Depends 
##  3 a4            a4Classif   Depends 
##  4 a4            a4Core      Depends 
##  5 a4            a4Reporting Depends 
##  6 a4Base        a4Preproc   Depends 
##  7 a4Base        a4Core      Depends 
##  8 a4Classif     a4Core      Depends 
##  9 a4Classif     a4Preproc   Depends 
## 10 ABAEnrichment R           Depends 
## # … with 128,926 more rows
…
